{
  "project_info": {
    "project_number": "769604489448,4863230119",
    "firebase_url": "https://bmnotify-acc8a.firebaseio.com",
    "project_id": "bmnotify-acc8a",
    "storage_bucket": "bmnotify-acc8a.appspot.com"
  },
  "client": [
    {
      "client_info": {
        "mobilesdk_app_id": "1:769604489448:android:3ab2ca3a152d8fff",
        "android_client_info": {
          "package_name": "com.example.iwek.bmnotify"
        }
      },
      "oauth_client": [
        {
          "client_id": "769604489448-64hohvbq9m7kf07q9onp3k8d1u6a2pqk.apps.googleusercontent.com",
          "client_type": 1,
          "android_info": {
            "package_name": "com.example.iwek.bmnotify",
            "certificate_hash": "B9097A8E1C87DF154E667A65943283C5DE922C48"
          }
        },
        {
          "client_id": "769604489448-qvmh8g41gt2q2c2vdtcjujnkl58esr68.apps.googleusercontent.com",
          "client_type": 3
        }
      ],
      "api_key": [
        {
          "current_key": "AIzaSyA9OeGqzI0nzLi-C4fJuL8cQ1dUe4EqRgM"
        }
      ],
      "services": {
        "analytics_service": {
          "status": 1
        },
        "appinvite_service": {
          "status": 2,
          "other_platform_oauth_client": [
            {
              "client_id": "769604489448-qvmh8g41gt2q2c2vdtcjujnkl58esr68.apps.googleusercontent.com",
              "client_type": 3
            }
          ]
        },
        "ads_service": {
          "status": 2
        }
      }
    },
    {
      "client_info": {
        "mobilesdk_app_id": "1:4863230119:android:3ab2ca3a152d8fff",
        "android_client_info": {
          "package_name": "com.example.iwek.bmnotify"
        }
      },
      "oauth_client": [
        {
          "client_id": "4863230119-66otd387o349h3pj1s2e9v01ise67ean.apps.googleusercontent.com",
          "client_type": 3
        }
      ],
      "api_key": [],
      "services": {
        "analytics_service": {
          "status": 1
        },
        "appinvite_service": {
          "status": 1,
          "other_platform_oauth_client": []
        },
        "ads_service": {
          "status": 2
        }
      }
    }
  ],
  "configuration_version": "1"
}